TestEditingAction 1639475259875 FrameTest.java CHANGE FrameTest.java CLASS CHANGE FrameTest.java CLASS
EditAction 1639475259877 FrameTest.java 2841 5 84 15
EditAction 1639475260008 FrameTest.java 2841 5 84 15
CodeEditingAction 1639475262816 Game.java CHANGE Game.java CLASS
CodeEditingAction 1639475262823 Frame.java CHANGE Frame.java CLASS
EditAction 1639475262824 Frame.java 1892 8 11 0
EditAction 1639475262843 Frame.java 1892 8 11 0
EditAction 1639475262846 Game.java 2023 8 8 0
TestPassAction 1639475263192 FrameTest.java OK
TestCreationAction 1639475353420 FrameTest.java ADD void gameSpare()/2 METHOD ADD void gameSpare()/2 METHOD
TestCreationAction 1639475359432 FrameTest.java RENAME gameSpare()/2=>void isSpare() METHOD RENAME gameSpare()/2=>void isSpare() METHOD
TestCreationAction 1639475362444 FrameTest.java RENAME isSpare()=>void isStrike() METHOD RENAME isSpare()=>void isStrike() METHOD
CodeEditingAction 1639475450227 Frame.java CHANGE Frame.java CLASS
EditAction 1639475450227 Frame.java 1910 8 10 0
EditAction 1639475450390 Frame.java 1910 8 10 0
CodeEditingAction 1639475545431 Frame.java CHANGE Frame.java CLASS
EditAction 1639475545538 Frame.java 1912 8 12 0
CodeEditingAction 1639475675458 Game.java CHANGE Game.java CLASS
EditAction 1639475675459 Game.java 2097 8 8 0
EditAction 1639475675571 Game.java 2097 8 8 0
TestEditingAction 1639475680604 FrameTest.java CHANGE FrameTest.java CLASS CHANGE FrameTest.java CLASS
EditAction 1639475680605 FrameTest.java 3469 6 106 16
EditAction 1639475680625 FrameTest.java 3469 6 106 16
TestFailureAction 1639475681014 FrameTest.java FAIL
CodeEditingAction 1639475819568 Game.java CHANGE Game.java CLASS
EditAction 1639475819568 Game.java 2096 8 5 0
EditAction 1639475819700 Game.java 2096 8 5 0
